Object,Assessor,Score,Confidence
1,A,6,m
1,B,7,h
1,C,7.5,m
2,A,9,m
2,D,9.5,h
2,E,9,h
3,A,8,m
3,C,7.5,l
3,F,10,h
4,A,7,m
4,C,8.8,h
4,F,8,m
5,F,7.5,m
5,A,8.5,h
5,D,9.2,m
6,D,8,h
6,F,8.5,m
6,G,9,h
7,H,9,h
7,F,9,m
7,G,8.5,h
8,C,10,l
8,D,9.5,m
8,E,9,h
9,H,6,m
9,C,6,m
9,F,7,h
10,E,9,m
10,G,9,h
10,C,8.5,m
11,D,7,m
11,G,8,m
11,C,8,h
12,D,8,m
12,H,7.5,m
12,A,7,h
13,D,6,m
13,C,8,h
13,G,7.5,m
14,D,10,m
14,H,8,h
14,A,8.5,m
15,G,8,m
15,E,8.5,h
15,H,8,h
