Student,Assessor,Score,Std Deviation
Albert,Lockhart,67,2.5
Albert,McGonagall,57,5
Albert,Quirrell,58,8
Albert,Pomfrey,63,4
Becky,Lockhart,71,3
Becky,McGonagall,70,5
Becky,Quirrell,75,4
Becky,Pomfrey,75,3
Charlie,Lockhart,65,3
Charlie,McGonagall,60,5
Charlie,Quirrell,66,5
Charlie,Pomfrey,65,6
Dave,Lockhart,73,3
Dave,Slughorn,72,5
Dave,Quirrell,70,6
Ellen,Lockhart,71,3
Ellen,Slughorn,65,6
Ellen,Quirrell,69,6
Fred,Lockhart,62,4
Fred,Slughorn,55,4
Fred,Quirrell,56,4
Fred,Pomfrey,61,5
Fred,McGonagall,50,20
Georgina,Lockhart,70,3
Georgina,Slughorn,74,7
Georgina,Quirrell,64,4
Georgina,Pomfrey,71,2
Georgina,McGonagall,65,5
Harry,Lockhart,75,3
Harry,Slughorn,73,6
Harry,Quirrell,72,4
Harry,Pomfrey,73,2
Harry,McGonagall,70,5
